{
	"info": {
		"_postman_id": "8775a7c1-f1e9-4729-a36b-9a77ba3b49df",
		"name": "MS Investments (Banco Inter)",
		"schema": "https://schema.getpostman.com/json/collection/v2.1.0/collection.json",
		"_exporter_id": "15828802"
	},
	"item": [
		{
			"name": "Company",
			"item": [
				{
					"name": "Create a Company",
					"request": {
						"method": "POST",
						"header": [],
						"body": {
							"mode": "raw",
							"raw": "{\r\n    \"name\": \"Teste\",\r\n    \"ticker\": \"TEST01\",\r\n    \"stockPrice\": 31,\r\n    \"status\": true\r\n}",
							"options": {
								"raw": {
									"language": "json"
								}
							}
						},
						"url": {
							"raw": "http://localhost:8080/api/v1/company",
							"protocol": "http",
							"host": [
								"localhost"
							],
							"port": "8080",
							"path": [
								"api",
								"v1",
								"company"
							]
						}
					},
					"response": []
				},
				{
					"name": "Get All Companies",
					"request": {
						"method": "GET",
						"header": [],
						"url": {
							"raw": "http://localhost:8080/api/v1/company",
							"protocol": "http",
							"host": [
								"localhost"
							],
							"port": "8080",
							"path": [
								"api",
								"v1",
								"company"
							],
							"query": [
								{
									"key": "page",
									"value": "0",
									"disabled": true
								},
								{
									"key": "size",
									"value": "10",
									"disabled": true
								},
								{
									"key": "sort",
									"value": "id,ASC",
									"disabled": true
								}
							]
						}
					},
					"response": []
				},
				{
					"name": "Get All Active Companies",
					"request": {
						"method": "GET",
						"header": [],
						"url": {
							"raw": "http://localhost:8080/api/v1/company/active",
							"protocol": "http",
							"host": [
								"localhost"
							],
							"port": "8080",
							"path": [
								"api",
								"v1",
								"company",
								"active"
							],
							"query": [
								{
									"key": "page",
									"value": "0",
									"disabled": true
								},
								{
									"key": "size",
									"value": "10",
									"disabled": true
								},
								{
									"key": "sort",
									"value": "id,ASC",
									"disabled": true
								}
							]
						}
					},
					"response": []
				},
				{
					"name": "Get One Company",
					"request": {
						"method": "GET",
						"header": [],
						"url": {
							"raw": "http://localhost:8080/api/v1/company/1",
							"protocol": "http",
							"host": [
								"localhost"
							],
							"port": "8080",
							"path": [
								"api",
								"v1",
								"company",
								"1"
							]
						}
					},
					"response": []
				},
				{
					"name": "Update a Company",
					"request": {
						"method": "PUT",
						"header": [],
						"body": {
							"mode": "raw",
							"raw": "{\r\n    \"name\": \"Teste\",\r\n    \"ticker\": \"TEST01\",\r\n    \"stockPrice\": 50,\r\n    \"status\": false\r\n}",
							"options": {
								"raw": {
									"language": "json"
								}
							}
						},
						"url": {
							"raw": "http://localhost:8080/api/v1/company/8",
							"protocol": "http",
							"host": [
								"localhost"
							],
							"port": "8080",
							"path": [
								"api",
								"v1",
								"company",
								"8"
							]
						}
					},
					"response": []
				},
				{
					"name": "Update a Company To Active Status",
					"request": {
						"method": "PATCH",
						"header": [],
						"body": {
							"mode": "raw",
							"raw": "{\r\n    \"name\": \"Teste\",\r\n    \"ticker\": \"TEST01\",\r\n    \"stockPrice\": 50,\r\n    \"status\": false\r\n}",
							"options": {
								"raw": {
									"language": "json"
								}
							}
						},
						"url": {
							"raw": "http://localhost:8080/api/v1/company/8/active",
							"protocol": "http",
							"host": [
								"localhost"
							],
							"port": "8080",
							"path": [
								"api",
								"v1",
								"company",
								"8",
								"active"
							]
						}
					},
					"response": []
				},
				{
					"name": "Update a Company  To Inactive Status",
					"request": {
						"method": "PATCH",
						"header": [],
						"body": {
							"mode": "raw",
							"raw": "{\r\n    \"name\": \"Teste\",\r\n    \"ticker\": \"TEST01\",\r\n    \"stockPrice\": 50,\r\n    \"status\": false\r\n}",
							"options": {
								"raw": {
									"language": "json"
								}
							}
						},
						"url": {
							"raw": "http://localhost:8080/api/v1/company/8/inactive",
							"protocol": "http",
							"host": [
								"localhost"
							],
							"port": "8080",
							"path": [
								"api",
								"v1",
								"company",
								"8",
								"inactive"
							]
						}
					},
					"response": []
				},
				{
					"name": "Delete a Company",
					"request": {
						"method": "DELETE",
						"header": [],
						"url": {
							"raw": "http://localhost:8080/api/v1/company/8",
							"protocol": "http",
							"host": [
								"localhost"
							],
							"port": "8080",
							"path": [
								"api",
								"v1",
								"company",
								"8"
							]
						}
					},
					"response": []
				}
			]
		},
		{
			"name": "Customer",
			"item": [
				{
					"name": "Create a Customer",
					"request": {
						"method": "POST",
						"header": [],
						"body": {
							"mode": "raw",
							"raw": "{\r\n    \"name\": \"Paulo Henrique Rodrigues Nadur <wrong_name>\",\r\n    \"cpf\": \"433.534.708-16\"\r\n}",
							"options": {
								"raw": {
									"language": "json"
								}
							}
						},
						"url": {
							"raw": "http://localhost:8080/api/v1/customer",
							"protocol": "http",
							"host": [
								"localhost"
							],
							"port": "8080",
							"path": [
								"api",
								"v1",
								"customer"
							]
						}
					},
					"response": []
				},
				{
					"name": "Get All Customers",
					"request": {
						"method": "GET",
						"header": [],
						"url": {
							"raw": "http://localhost:8080/api/v1/customer",
							"protocol": "http",
							"host": [
								"localhost"
							],
							"port": "8080",
							"path": [
								"api",
								"v1",
								"customer"
							],
							"query": [
								{
									"key": "page",
									"value": "0",
									"disabled": true
								},
								{
									"key": "size",
									"value": "10",
									"disabled": true
								},
								{
									"key": "sort",
									"value": "id,ASC",
									"disabled": true
								}
							]
						}
					},
					"response": []
				},
				{
					"name": "Get One Customer",
					"request": {
						"method": "GET",
						"header": [],
						"url": {
							"raw": "http://localhost:8080/api/v1/customer/1",
							"protocol": "http",
							"host": [
								"localhost"
							],
							"port": "8080",
							"path": [
								"api",
								"v1",
								"customer",
								"1"
							]
						}
					},
					"response": []
				},
				{
					"name": "Update a Customer",
					"request": {
						"method": "PUT",
						"header": [],
						"body": {
							"mode": "raw",
							"raw": "{\r\n    \"name\": \"Paulo Henrique Rodrigues Nadur\",\r\n    \"cpf\": \"433.534.708-16\"\r\n}",
							"options": {
								"raw": {
									"language": "json"
								}
							}
						},
						"url": {
							"raw": "http://localhost:8080/api/v1/customer/2",
							"protocol": "http",
							"host": [
								"localhost"
							],
							"port": "8080",
							"path": [
								"api",
								"v1",
								"customer",
								"2"
							]
						}
					},
					"response": []
				},
				{
					"name": "Delete a Customer",
					"request": {
						"method": "DELETE",
						"header": [],
						"url": {
							"raw": "http://localhost:8080/api/v1/customer/2",
							"protocol": "http",
							"host": [
								"localhost"
							],
							"port": "8080",
							"path": [
								"api",
								"v1",
								"customer",
								"2"
							]
						}
					},
					"response": []
				}
			]
		},
		{
			"name": "Investment",
			"item": [
				{
					"name": "Create a Investment",
					"request": {
						"method": "POST",
						"header": [],
						"body": {
							"mode": "raw",
							"raw": "{\r\n    \"customerCpf\": \"467.589.878-50\",\r\n    \"totalToInvest\": 215.99,\r\n    \"numberOfCompaniesToDiversify\": 7\r\n}",
							"options": {
								"raw": {
									"language": "json"
								}
							}
						},
						"url": {
							"raw": "http://localhost:8080/api/v1/investment",
							"protocol": "http",
							"host": [
								"localhost"
							],
							"port": "8080",
							"path": [
								"api",
								"v1",
								"investment"
							]
						}
					},
					"response": []
				},
				{
					"name": "Get All Investments",
					"request": {
						"method": "GET",
						"header": [],
						"url": {
							"raw": "http://localhost:8080/api/v1/investment",
							"protocol": "http",
							"host": [
								"localhost"
							],
							"port": "8080",
							"path": [
								"api",
								"v1",
								"investment"
							],
							"query": [
								{
									"key": "page",
									"value": "0",
									"disabled": true
								},
								{
									"key": "size",
									"value": "10",
									"disabled": true
								},
								{
									"key": "sort",
									"value": "id,ASC",
									"disabled": true
								},
								{
									"key": "customerId",
									"value": "1",
									"disabled": true
								},
								{
									"key": "companyId",
									"value": "3",
									"disabled": true
								}
							]
						}
					},
					"response": []
				},
				{
					"name": "Get One Investment",
					"request": {
						"method": "GET",
						"header": [],
						"url": {
							"raw": "http://localhost:8080/api/v1/investment/1",
							"protocol": "http",
							"host": [
								"localhost"
							],
							"port": "8080",
							"path": [
								"api",
								"v1",
								"investment",
								"1"
							]
						}
					},
					"response": []
				}
			]
		},
		{
			"name": "Actuator",
			"item": [
				{
					"name": "Actuator",
					"request": {
						"method": "GET",
						"header": [],
						"url": {
							"raw": "http://localhost:8081/actuator",
							"protocol": "http",
							"host": [
								"localhost"
							],
							"port": "8081",
							"path": [
								"actuator"
							]
						}
					},
					"response": []
				},
				{
					"name": "Health",
					"request": {
						"method": "GET",
						"header": [],
						"url": {
							"raw": "http://localhost:8081/actuator/health",
							"protocol": "http",
							"host": [
								"localhost"
							],
							"port": "8081",
							"path": [
								"actuator",
								"health"
							]
						}
					},
					"response": []
				},
				{
					"name": "Health Liveness",
					"request": {
						"method": "GET",
						"header": [],
						"url": {
							"raw": "http://localhost:8081/actuator/health/liveness",
							"protocol": "http",
							"host": [
								"localhost"
							],
							"port": "8081",
							"path": [
								"actuator",
								"health",
								"liveness"
							]
						}
					},
					"response": []
				},
				{
					"name": "Health Readiness",
					"request": {
						"method": "GET",
						"header": [],
						"url": {
							"raw": "http://localhost:8081/actuator/health/readiness",
							"protocol": "http",
							"host": [
								"localhost"
							],
							"port": "8081",
							"path": [
								"actuator",
								"health",
								"readiness"
							]
						}
					},
					"response": []
				},
				{
					"name": "OpenAPI",
					"request": {
						"method": "GET",
						"header": [],
						"url": {
							"raw": "http://localhost:8081/actuator/openapi",
							"protocol": "http",
							"host": [
								"localhost"
							],
							"port": "8081",
							"path": [
								"actuator",
								"openapi"
							]
						}
					},
					"response": []
				},
				{
					"name": "SwaggerUI",
					"request": {
						"method": "GET",
						"header": [],
						"url": {
							"raw": "http://localhost:8081/actuator/swagger-ui",
							"protocol": "http",
							"host": [
								"localhost"
							],
							"port": "8081",
							"path": [
								"actuator",
								"swagger-ui"
							]
						}
					},
					"response": []
				}
			]
		}
	]
}